{
  "$schema": "https://docs.renovatebot.com/renovate-schema.json",
  "extends": [
    "config:recommended"
  ],
  "prConcurrentLimit": 10,
  "recreateClosed": false,
  "vulnerabilityAlerts": {
    "enabled": true
  }

}
